…
From the table we can easily read the mean hours of the day at each day of the week users spend on product "Coffee Ice Cream" and "Pink Lady Apples". We can find that people spend most hours for "Coffee Ice Cream" at Tuesday and for "Pink Lady Apples" at Wednesday.

Problem 3
=========

``` r
data("ny_noaa")
ny_noaa
```

    ## # A tibble: 2,595,176 x 7
    ##    id          date        prcp  snow  snwd tmax  tmin 
    ##    <chr>       <date>     <int> <int> <int> <chr> <chr>
    ##  1 US1NYAB0001 2007-11-01    NA    NA    NA <NA>  <NA> 
    ##  2 US1NYAB0001 2007-11-02    NA    NA    NA <NA>  <NA> 
    ##  3 US1NYAB0001 2007-11-03    NA    NA    NA <NA>  <NA> 
    ##  4 US1NYAB0001 2007-11-04    NA    NA    NA <NA>  <NA> 
    ##  5 US1NYAB0001 2007-11-05    NA    NA    NA <NA>  <NA> 
    ##  6 US1NYAB0001 2007-11-06    NA    NA    NA <NA>  <NA> 
    ##  7 US1NYAB0001 2007-11-07    NA    NA    NA <NA>  <NA> 
    ##  8 US1NYAB0001 2007-11-08    NA    NA    NA <NA>  <NA> 
    ##  9 US1NYAB0001 2007-11-09    NA    NA    NA <NA>  <NA> 
    ## 10 US1NYAB0001 2007-11-10    NA    NA    NA <NA>  <NA> 
    ## # ... with 2,595,166 more rows

The goal is to do some exploration of this dataset.

To that end, write a short description of the dataset, noting the size and structure of the data, describing some key variables, and indicating the extent to which missing data is an issue.

This dataset "ny\_noaa" provides some weather data, it contains records from 747 different weather stations for about datas from 10,957 obervational days. The size of the dataset is 2595176 rows x 7 columns. The key variables are id (weather station ID), date (date of observation), prcp (precipitation for tenths of mm), snow (snowfall for mm), snwd (snow depth for mm) and tmax and tmin (maximum and mimimum temperature for tenths of degrees C). At last, we calculate the proportion of missing value fro each vairable, we have 0.0561958 for prop, 0.146896 for snow, 0.2280331 for snwd, 0.4371025 for tmax and 0.4371264 for tmin.

``` r
ny_noaa %>% 
  group_by(id) %>% 
  summarise(number = n())
```

    ## # A tibble: 747 x 2
    ##    id          number
    ##    <chr>        <int>
    ##  1 US1NYAB0001   1157
    ##  2 US1NYAB0006    852
    ##  3 US1NYAB0010    822
    ##  4 US1NYAB0016    214
    ##  5 US1NYAB0017    459
    ##  6 US1NYAB0021    365
    ##  7 US1NYAB0022    273
    ##  8 US1NYAB0023    365
    ##  9 US1NYAB0025    215
    ## 10 US1NYAL0002    549
    ## # ... with 737 more rows

``` r
ny_noaa %>% 
  group_by(date) %>% 
  summarise(number = n()) 
```

    ## # A tibble: 10,957 x 2
    ##    date       number
    ##    <date>      <int>
    ##  1 1981-01-01    236
    ##  2 1981-01-02    236
    ##  3 1981-01-03    236
    ##  4 1981-01-04    236
    ##  5 1981-01-05    236
    ##  6 1981-01-06    236
    ##  7 1981-01-07    236
    ##  8 1981-01-08    236
    ##  9 1981-01-09    236
    ## 10 1981-01-10    236
    ## # ... with 10,947 more rows
…
